"Product ID";"Product reference";"Attribute (Name:Type:Position)";"Value (Value:Position)";"Supplier reference";"Reference";"EAN13";"UPC";"Wholesale price";"Impact on price";"Ecotax";"Quantity";"Minimal quantity";"Low stock threshold";"Send me an email when the quantity is under this level";"Impact on weight";"Default (0 = No, 1 = Yes)";"Combination availability date";"Image position";"Image URL";"Image alt texts";"ID / Name of shop"
"54";"";"Color:color:0";"White Rose:20";"";"620EZ2010B0";"8000";"";"0.000000";"0.000000";"0.000000";"50";"1";"";"";"0.000000";"1";"0000-00-00";"1,3,4";"http://amano.desarrollo1.webtilia-websites.com/82/mamacha.jpg,http://amano.desarrollo1.webtilia-websites.com/84/mamacha.jpg,http://amano.desarrollo1.webtilia-websites.com/85/mamacha.jpg";",,";"1"
"54";"";"Color:color:0";"Wheat:21";"";"620EZ2010B1";"8001";"";"0.000000";"0.000000";"0.000000";"50";"1";"";"";"0.000000";"0";"0000-00-00";"2,5,6";"http://amano.desarrollo1.webtilia-websites.com/83/mamacha.jpg,http://amano.desarrollo1.webtilia-websites.com/86/mamacha.jpg,http://amano.desarrollo1.webtilia-websites.com/87/mamacha.jpg";",,";"1"
"54";"";"Color:color:0";"Toasted Coffee:22";"";"620EZ2010B2";"8002";"";"0.000000";"0.000000";"0.000000";"50";"1";"";"";"0.000000";"0";"0000-00-00";"43,44,45";"http://amano.desarrollo1.webtilia-websites.com/127/mamacha.jpg,http://amano.desarrollo1.webtilia-websites.com/128/mamacha.jpg,http://amano.desarrollo1.webtilia-websites.com/129/mamacha.jpg";",,";"1"
"54";"";"Color:color:0";"Quinua:23";"";"620EZ2010B3";"8003";"";"0.000000";"0.000000";"0.000000";"50";"1";"";"";"0.000000";"0";"0000-00-00";"7,8,9";"http://amano.desarrollo1.webtilia-websites.com/91/mamacha.jpg,http://amano.desarrollo1.webtilia-websites.com/92/mamacha.jpg,http://amano.desarrollo1.webtilia-websites.com/93/mamacha.jpg";",,";"1"
"54";"";"Color:color:0";"Pepper Red:24";"";"620EZ2010B4";"8004";"";"0.000000";"0.000000";"0.000000";"49";"1";"";"";"0.000000";"0";"0000-00-00";"10,11,12";"http://amano.desarrollo1.webtilia-websites.com/94/mamacha.jpg,http://amano.desarrollo1.webtilia-websites.com/95/mamacha.jpg,http://amano.desarrollo1.webtilia-websites.com/96/mamacha.jpg";",,";"1"
"54";"";"Color:color:0";"Cantu:25";"";"620EZ2010B5";"8005";"";"0.000000";"0.000000";"0.000000";"50";"1";"";"";"0.000000";"0";"0000-00-00";"13,14,15";"http://amano.desarrollo1.webtilia-websites.com/97/mamacha.jpg,http://amano.desarrollo1.webtilia-websites.com/98/mamacha.jpg,http://amano.desarrollo1.webtilia-websites.com/99/mamacha.jpg";",,";"1"
"54";"";"Color:color:0";"Beetroot :26";"";"620EZ2010B6";"8006";"";"0.000000";"0.000000";"0.000000";"50";"1";"";"";"0.000000";"0";"0000-00-00";"16,17,18";"http://amano.desarrollo1.webtilia-websites.com/100/mamacha.jpg,http://amano.desarrollo1.webtilia-websites.com/101/mamacha.jpg,http://amano.desarrollo1.webtilia-websites.com/102/mamacha.jpg";",,";"1"
"54";"";"Color:color:0";"Olive Green:27";"";"620EZ2010B7";"8007";"";"0.000000";"0.000000";"0.000000";"50";"1";"";"";"0.000000";"0";"0000-00-00";"19,20,21";"http://amano.desarrollo1.webtilia-websites.com/103/mamacha.jpg,http://amano.desarrollo1.webtilia-websites.com/104/mamacha.jpg,http://amano.desarrollo1.webtilia-websites.com/105/mamacha.jpg";",,";"1"
"54";"";"Color:color:0";"Orchid:28";"";"620EZ2010B8";"8008";"";"0.000000";"0.000000";"0.000000";"50";"1";"";"";"0.000000";"0";"0000-00-00";"22,23,24";"http://amano.desarrollo1.webtilia-websites.com/106/mamacha.jpg,http://amano.desarrollo1.webtilia-websites.com/107/mamacha.jpg,http://amano.desarrollo1.webtilia-websites.com/108/mamacha.jpg";",,";"1"
"54";"";"Color:color:0";"Blue Berry:29";"";"620EZ2010B9";"8009";"";"0.000000";"0.000000";"0.000000";"50";"1";"";"";"0.000000";"0";"0000-00-00";"25,26,27";"http://amano.desarrollo1.webtilia-websites.com/109/mamacha.jpg,http://amano.desarrollo1.webtilia-websites.com/110/mamacha.jpg,http://amano.desarrollo1.webtilia-websites.com/111/mamacha.jpg";",,";"1"
"54";"";"Color:color:0";"Chia:30";"";"620EZ2010B10";"8010";"";"0.000000";"0.000000";"0.000000";"50";"1";"";"";"0.000000";"0";"0000-00-00";"28,29,30";"http://amano.desarrollo1.webtilia-websites.com/112/mamacha.jpg,http://amano.desarrollo1.webtilia-websites.com/113/mamacha.jpg,http://amano.desarrollo1.webtilia-websites.com/114/mamacha.jpg";",,";"1"
"54";"";"Color:color:0";"Fig Purple:31";"";"620EZ2010B11";"8011";"";"0.000000";"0.000000";"0.000000";"50";"1";"";"";"0.000000";"0";"0000-00-00";"31,32,33";"http://amano.desarrollo1.webtilia-websites.com/115/mamacha.jpg,http://amano.desarrollo1.webtilia-websites.com/116/mamacha.jpg,http://amano.desarrollo1.webtilia-websites.com/117/mamacha.jpg";",,";"1"
"54";"";"Color:color:0";"Chirimoy a Green:32";"";"620EZ2010B12";"8012";"";"0.000000";"0.000000";"0.000000";"50";"1";"";"";"0.000000";"0";"0000-00-00";"34,35,37";"http://amano.desarrollo1.webtilia-websites.com/118/mamacha.jpg,http://amano.desarrollo1.webtilia-websites.com/119/mamacha.jpg,http://amano.desarrollo1.webtilia-websites.com/121/mamacha.jpg";",,";"1"
"54";"";"Color:color:0";"Acai Blue:33";"";"620EZ2010B13";"8013";"";"0.000000";"0.000000";"0.000000";"50";"1";"";"";"0.000000";"0";"0000-00-00";"36,38,39";"http://amano.desarrollo1.webtilia-websites.com/120/mamacha.jpg,http://amano.desarrollo1.webtilia-websites.com/122/mamacha.jpg,http://amano.desarrollo1.webtilia-websites.com/123/mamacha.jpg";",,";"1"
"54";"";"Color:color:0";"Edelberry:34";"";"620EZ2010B14";"8014";"";"0.000000";"0.000000";"0.000000";"50";"1";"";"";"0.000000";"0";"0000-00-00";"40,41,42";"http://amano.desarrollo1.webtilia-websites.com/124/mamacha.jpg,http://amano.desarrollo1.webtilia-websites.com/125/mamacha.jpg,http://amano.desarrollo1.webtilia-websites.com/126/mamacha.jpg";",,";"1"
